{
  "status": true,
  "response": {
    "data": [
      {
        "id": "1",
        "question": "Overall how do you feel your pain is?",
        "type": 0,
        "answers": [
          {
            "id": 1,
            "text": "Improving",
            "isSelected": false
          },
          {
            "id": 2,
            "text": "Worsening",
            "isSelected": false
          },
          {
            "id": 3,
            "text": "No change",
            "isSelected": false
          }
        ]
      },
      {
        "id": "2",
        "question": "When is your pain the worst?",
        "type": 0,
        "answers": [
          {
            "id": 1,
            "text": "While sitting at rest",
            "isSelected": false
          },
          {
            "id": 2,
            "text": "In the morning ",
            "isSelected": false
          },
          {
            "id": 3,
            "text": "At night",
            "isSelected": false
          },
          {
            "id": 4,
            "text": "During the day with normal activities",
            "isSelected": false
          },
          {
            "id": 5,
            "text": "Other",
            "isSelected": false
          }
        ]
      },
      {
        "id": "3",
        "question": "What has made your pain better?",
        "type": 0,
        "answers": [
          {
            "id": 1,
            "text": "Ice",
            "isSelected": false
          },
          {
            "id": 2,
            "text": "Heat",
            "isSelected": false
          },
          {
            "id": 3,
            "text": "Stretching",
            "isSelected": false
          },
          {
            "id": 4,
            "text": "Meditation",
            "isSelected": false
          },
          {
            "id": 5,
            "text": "Rest",
            "isSelected": false
          },
          {
            "id": 6,
            "text": "Movement",
            "isSelected": false
          },
          {
            "id": 7,
            "text": "Nothing",
            "isSelected": false
          },
          {
            "id": 8,
            "text": "Other",
            "isSelected": false
          }
        ]
      },
      {
        "id": "4",
        "question": "Is your pain preventing you from walking?",
        "type": 0,
        "answers": [
          {
            "id": 1,
            "text": "Yes",
            "isSelected": false
          },
          {
            "id": 2,
            "text": "No",
            "isSelected": false
          }
        ]
      },
      {
        "id": "5",
        "question": "Is your pain preventing you from sleeping?",
        "type": 0,
        "answers": [
          {
            "id": 1,
            "text": "Yes",
            "isSelected": false
          },
          {
            "id": 2,
            "text": "No",
            "isSelected": false
          }
        ]
      },
      {
        "id": "6",
        "question": "Which pain goals do you identify with the most?",
        "type": 0,
        "answers": [
          {
            "id": 1,
            "text": "Reducing the intensity and severity of my pain",
            "isSelected": false
          },
          {
            "id": 2,
            "text": "Improving my daily functioning",
            "isSelected": false
          },
          {
            "id": 3,
            "text": "Improving my sleep and mood",
            "isSelected": false
          },
          {
            "id": 4,
            "text": "Managing my medication use",
            "isSelected": false
          },
          {
            "id": 5,
            "text": "Returning to work",
            "isSelected": false
          },
          {
            "id": 6,
            "text": "Other",
            "isSelected": false
          }
        ]
      },
      {
        "id": "7",
        "question": "Is there anything you want your provider to know about your pain that you couldn’t say in your last visit?",
        "type": 1,
        "answers": [
        ]
      }
    ]
  }
}